(['C:\\git\\python\\Executables\\Rock Paper Scissors\\Rock Paper Scissors.py'],
 ['C:\\git\\python\\Executables\\Rock Paper Scissors'],
 ['codecs'],
 ['C:\\Users\\SirrafuS\\AppData\\Local\\Programs\\Python\\Python310\\lib\\site-packages\\_pyinstaller_hooks_contrib\\hooks\\stdhooks',
  'C:\\Users\\SirrafuS\\AppData\\Local\\Programs\\Python\\Python310\\lib\\site-packages\\_pyinstaller_hooks_contrib\\hooks\\stdhooks\\__pycache__',
  'C:\\Users\\SirrafuS\\AppData\\Local\\Programs\\Python\\Python310\\lib\\site-packages\\_pyinstaller_hooks_contrib\\hooks\\rthooks',
  'C:\\Users\\SirrafuS\\AppData\\Local\\Programs\\Python\\Python310\\lib\\site-packages\\_pyinstaller_hooks_contrib\\hooks\\rthooks\\__pycache__',
  'C:\\Users\\SirrafuS\\AppData\\Local\\Programs\\Python\\Python310\\lib\\site-packages\\_pyinstaller_hooks_contrib\\hooks'],
 {},
 [],
 [],
 False,
 False,
 False,
 '3.10.4 (tags/v3.10.4:9d38120, Mar 23 2022, 23:13:41) [MSC v.1929 64 bit '
 '(AMD64)]',
 [('pyi_rth_subprocess',
   'C:\\Users\\SirrafuS\\AppData\\Local\\Programs\\Python\\Python310\\Lib\\site-packages\\PyInstaller\\hooks\\rthooks\\pyi_rth_subprocess.py',
   'PYSOURCE'),
  ('pyi_rth_inspect',
   'C:\\Users\\SirrafuS\\AppData\\Local\\Programs\\Python\\Python310\\Lib\\site-packages\\PyInstaller\\hooks\\rthooks\\pyi_rth_inspect.py',
   'PYSOURCE'),
  ('pyi_rth_pkgutil',
   'C:\\Users\\SirrafuS\\AppData\\Local\\Programs\\Python\\Python310\\Lib\\site-packages\\PyInstaller\\hooks\\rthooks\\pyi_rth_pkgutil.py',
   'PYSOURCE'),
  ('pyi_rth_multiprocessing',
   'C:\\Users\\SirrafuS\\AppData\\Local\\Programs\\Python\\Python310\\Lib\\site-packages\\PyInstaller\\hooks\\rthooks\\pyi_rth_multiprocessing.py',
   'PYSOURCE'),
  ('Rock Paper Scissors',
   'C:\\git\\python\\Executables\\Rock Paper Scissors\\Rock Paper Scissors.py',
   'PYSOURCE')],
 [('multiprocessing.popen_spawn_posix',
   'C:\\Users\\SirrafuS\\AppData\\Local\\Programs\\Python\\Python310\\lib\\multiprocessing\\popen_spawn_posix.py',
   'PYMODULE'),
  ('multiprocessing.resource_tracker',
   'C:\\Users\\SirrafuS\\AppData\\Local\\Programs\\Python\\Python310\\lib\\multiprocessing\\resource_tracker.py',
   'PYMODULE'),
  ('threading',
   'C:\\Users\\SirrafuS\\AppData\\Local\\Programs\\Python\\Python310\\lib\\threading.py',
   'PYMODULE'),
  ('_threading_local',
   'C:\\Users\\SirrafuS\\AppData\\Local\\Programs\\Python\\Python310\\lib\\_threading_local.py',
   'PYMODULE'),
  ('contextlib',
   'C:\\Users\\SirrafuS\\AppData\\Local\\Programs\\Python\\Python310\\lib\\contextlib.py',
   'PYMODULE'),
  ('_strptime',
   'C:\\Users\\SirrafuS\\AppData\\Local\\Programs\\Python\\Python310\\lib\\_strptime.py',
   'PYMODULE'),
  ('datetime',
   'C:\\Users\\SirrafuS\\AppData\\Local\\Programs\\Python\\Python310\\lib\\datetime.py',
   'PYMODULE'),
  ('calendar',
   'C:\\Users\\SirrafuS\\AppData\\Local\\Programs\\Python\\Python310\\lib\\calendar.py',
   'PYMODULE'),
  ('argparse',
   'C:\\Users\\SirrafuS\\AppData\\Local\\Programs\\Python\\Python310\\lib\\argparse.py',
   'PYMODULE'),
  ('textwrap',
   'C:\\Users\\SirrafuS\\AppData\\Local\\Programs\\Python\\Python310\\lib\\textwrap.py',
   'PYMODULE'),
  ('shutil',
   'C:\\Users\\SirrafuS\\AppData\\Local\\Programs\\Python\\Python310\\lib\\shutil.py',
   'PYMODULE'),
  ('zipfile',
   'C:\\Users\\SirrafuS\\AppData\\Local\\Programs\\Python\\Python310\\lib\\zipfile.py',
   'PYMODULE'),
  ('py_compile',
   'C:\\Users\\SirrafuS\\AppData\\Local\\Programs\\Python\\Python310\\lib\\py_compile.py',
   'PYMODULE'),
  ('ntpath',
   'C:\\Users\\SirrafuS\\AppData\\Local\\Programs\\Python\\Python310\\lib\\ntpath.py',
   'PYMODULE'),
  ('string',
   'C:\\Users\\SirrafuS\\AppData\\Local\\Programs\\Python\\Python310\\lib\\string.py',
   'PYMODULE'),
  ('genericpath',
   'C:\\Users\\SirrafuS\\AppData\\Local\\Programs\\Python\\Python310\\lib\\genericpath.py',
   'PYMODULE'),
  ('importlib.machinery',
   'C:\\Users\\SirrafuS\\AppData\\Local\\Programs\\Python\\Python310\\lib\\importlib\\machinery.py',
   'PYMODULE'),
  ('importlib',
   'C:\\Users\\SirrafuS\\AppData\\Local\\Programs\\Python\\Python310\\lib\\importlib\\__init__.py',
   'PYMODULE'),
  ('importlib.abc',
   'C:\\Users\\SirrafuS\\AppData\\Local\\Programs\\Python\\Python310\\lib\\importlib\\abc.py',
   'PYMODULE'),
  ('typing',
   'C:\\Users\\SirrafuS\\AppData\\Local\\Programs\\Python\\Python310\\lib\\typing.py',
   'PYMODULE'),
  ('importlib._abc',
   'C:\\Users\\SirrafuS\\AppData\\Local\\Programs\\Python\\Python310\\lib\\importlib\\_abc.py',
   'PYMODULE'),
  ('importlib._bootstrap',
   'C:\\Users\\SirrafuS\\AppData\\Local\\Programs\\Python\\Python310\\lib\\importlib\\_bootstrap.py',
   'PYMODULE'),
  ('importlib._bootstrap_external',
   'C:\\Users\\SirrafuS\\AppData\\Local\\Programs\\Python\\Python310\\lib\\importlib\\_bootstrap_external.py',
   'PYMODULE'),
  ('importlib.metadata',
   'C:\\Users\\SirrafuS\\AppData\\Local\\Programs\\Python\\Python310\\lib\\importlib\\metadata\\__init__.py',
   'PYMODULE'),
  ('importlib.metadata._itertools',
   'C:\\Users\\SirrafuS\\AppData\\Local\\Programs\\Python\\Python310\\lib\\importlib\\metadata\\_itertools.py',
   'PYMODULE'),
  ('importlib.metadata._functools',
   'C:\\Users\\SirrafuS\\AppData\\Local\\Programs\\Python\\Python310\\lib\\importlib\\metadata\\_functools.py',
   'PYMODULE'),
  ('importlib.metadata._collections',
   'C:\\Users\\SirrafuS\\AppData\\Local\\Programs\\Python\\Python310\\lib\\importlib\\metadata\\_collections.py',
   'PYMODULE'),
  ('importlib.metadata._meta',
   'C:\\Users\\SirrafuS\\AppData\\Local\\Programs\\Python\\Python310\\lib\\importlib\\metadata\\_meta.py',
   'PYMODULE'),
  ('importlib.metadata._adapters',
   'C:\\Users\\SirrafuS\\AppData\\Local\\Programs\\Python\\Python310\\lib\\importlib\\metadata\\_adapters.py',
   'PYMODULE'),
  ('importlib.metadata._text',
   'C:\\Users\\SirrafuS\\AppData\\Local\\Programs\\Python\\Python310\\lib\\importlib\\metadata\\_text.py',
   'PYMODULE'),
  ('email.message',
   'C:\\Users\\SirrafuS\\AppData\\Local\\Programs\\Python\\Python310\\lib\\email\\message.py',
   'PYMODULE'),
  ('email.policy',
   'C:\\Users\\SirrafuS\\AppData\\Local\\Programs\\Python\\Python310\\lib\\email\\policy.py',
   'PYMODULE'),
  ('email.contentmanager',
   'C:\\Users\\SirrafuS\\AppData\\Local\\Programs\\Python\\Python310\\lib\\email\\contentmanager.py',
   'PYMODULE'),
  ('email.quoprimime',
   'C:\\Users\\SirrafuS\\AppData\\Local\\Programs\\Python\\Python310\\lib\\email\\quoprimime.py',
   'PYMODULE'),
  ('email.headerregistry',
   'C:\\Users\\SirrafuS\\AppData\\Local\\Programs\\Python\\Python310\\lib\\email\\headerregistry.py',
   'PYMODULE'),
  ('email._header_value_parser',
   'C:\\Users\\SirrafuS\\AppData\\Local\\Programs\\Python\\Python310\\lib\\email\\_header_value_parser.py',
   'PYMODULE'),
  ('urllib',
   'C:\\Users\\SirrafuS\\AppData\\Local\\Programs\\Python\\Python310\\lib\\urllib\\__init__.py',
   'PYMODULE'),
  ('email.iterators',
   'C:\\Users\\SirrafuS\\AppData\\Local\\Programs\\Python\\Python310\\lib\\email\\iterators.py',
   'PYMODULE'),
  ('email.generator',
   'C:\\Users\\SirrafuS\\AppData\\Local\\Programs\\Python\\Python310\\lib\\email\\generator.py',
   'PYMODULE'),
  ('email._encoded_words',
   'C:\\Users\\SirrafuS\\AppData\\Local\\Programs\\Python\\Python310\\lib\\email\\_encoded_words.py',
   'PYMODULE'),
  ('base64',
   'C:\\Users\\SirrafuS\\AppData\\Local\\Programs\\Python\\Python310\\lib\\base64.py',
   'PYMODULE'),
  ('getopt',
   'C:\\Users\\SirrafuS\\AppData\\Local\\Programs\\Python\\Python310\\lib\\getopt.py',
   'PYMODULE'),
  ('email.charset',
   'C:\\Users\\SirrafuS\\AppData\\Local\\Programs\\Python\\Python310\\lib\\email\\charset.py',
   'PYMODULE'),
  ('email.encoders',
   'C:\\Users\\SirrafuS\\AppData\\Local\\Programs\\Python\\Python310\\lib\\email\\encoders.py',
   'PYMODULE'),
  ('email.base64mime',
   'C:\\Users\\SirrafuS\\AppData\\Local\\Programs\\Python\\Python310\\lib\\email\\base64mime.py',
   'PYMODULE'),
  ('email._policybase',
   'C:\\Users\\SirrafuS\\AppData\\Local\\Programs\\Python\\Python310\\lib\\email\\_policybase.py',
   'PYMODULE'),
  ('email.header',
   'C:\\Users\\SirrafuS\\AppData\\Local\\Programs\\Python\\Python310\\lib\\email\\header.py',
   'PYMODULE'),
  ('email.errors',
   'C:\\Users\\SirrafuS\\AppData\\Local\\Programs\\Python\\Python310\\lib\\email\\errors.py',
   'PYMODULE'),
  ('email.utils',
   'C:\\Users\\SirrafuS\\AppData\\Local\\Programs\\Python\\Python310\\lib\\email\\utils.py',
   'PYMODULE'),
  ('email._parseaddr',
   'C:\\Users\\SirrafuS\\AppData\\Local\\Programs\\Python\\Python310\\lib\\email\\_parseaddr.py',
   'PYMODULE'),
  ('urllib.parse',
   'C:\\Users\\SirrafuS\\AppData\\Local\\Programs\\Python\\Python310\\lib\\urllib\\parse.py',
   'PYMODULE'),
  ('socket',
   'C:\\Users\\SirrafuS\\AppData\\Local\\Programs\\Python\\Python310\\lib\\socket.py',
   'PYMODULE'),
  ('selectors',
   'C:\\Users\\SirrafuS\\AppData\\Local\\Programs\\Python\\Python310\\lib\\selectors.py',
   'PYMODULE'),
  ('quopri',
   'C:\\Users\\SirrafuS\\AppData\\Local\\Programs\\Python\\Python310\\lib\\quopri.py',
   'PYMODULE'),
  ('uu',
   'C:\\Users\\SirrafuS\\AppData\\Local\\Programs\\Python\\Python310\\lib\\uu.py',
   'PYMODULE'),
  ('optparse',
   'C:\\Users\\SirrafuS\\AppData\\Local\\Programs\\Python\\Python310\\lib\\optparse.py',
   'PYMODULE'),
  ('email',
   'C:\\Users\\SirrafuS\\AppData\\Local\\Programs\\Python\\Python310\\lib\\email\\__init__.py',
   'PYMODULE'),
  ('email.parser',
   'C:\\Users\\SirrafuS\\AppData\\Local\\Programs\\Python\\Python310\\lib\\email\\parser.py',
   'PYMODULE'),
  ('email.feedparser',
   'C:\\Users\\SirrafuS\\AppData\\Local\\Programs\\Python\\Python310\\lib\\email\\feedparser.py',
   'PYMODULE'),
  ('csv',
   'C:\\Users\\SirrafuS\\AppData\\Local\\Programs\\Python\\Python310\\lib\\csv.py',
   'PYMODULE'),
  ('importlib.readers',
   'C:\\Users\\SirrafuS\\AppData\\Local\\Programs\\Python\\Python310\\lib\\importlib\\readers.py',
   'PYMODULE'),
  ('pathlib',
   'C:\\Users\\SirrafuS\\AppData\\Local\\Programs\\Python\\Python310\\lib\\pathlib.py',
   'PYMODULE'),
  ('struct',
   'C:\\Users\\SirrafuS\\AppData\\Local\\Programs\\Python\\Python310\\lib\\struct.py',
   'PYMODULE'),
  ('posixpath',
   'C:\\Users\\SirrafuS\\AppData\\Local\\Programs\\Python\\Python310\\lib\\posixpath.py',
   'PYMODULE'),
  ('importlib.util',
   'C:\\Users\\SirrafuS\\AppData\\Local\\Programs\\Python\\Python310\\lib\\importlib\\util.py',
   'PYMODULE'),
  ('tarfile',
   'C:\\Users\\SirrafuS\\AppData\\Local\\Programs\\Python\\Python310\\lib\\tarfile.py',
   'PYMODULE'),
  ('gzip',
   'C:\\Users\\SirrafuS\\AppData\\Local\\Programs\\Python\\Python310\\lib\\gzip.py',
   'PYMODULE'),
  ('_compression',
   'C:\\Users\\SirrafuS\\AppData\\Local\\Programs\\Python\\Python310\\lib\\_compression.py',
   'PYMODULE'),
  ('lzma',
   'C:\\Users\\SirrafuS\\AppData\\Local\\Programs\\Python\\Python310\\lib\\lzma.py',
   'PYMODULE'),
  ('bz2',
   'C:\\Users\\SirrafuS\\AppData\\Local\\Programs\\Python\\Python310\\lib\\bz2.py',
   'PYMODULE'),
  ('fnmatch',
   'C:\\Users\\SirrafuS\\AppData\\Local\\Programs\\Python\\Python310\\lib\\fnmatch.py',
   'PYMODULE'),
  ('stat',
   'C:\\Users\\SirrafuS\\AppData\\Local\\Programs\\Python\\Python310\\lib\\stat.py',
   'PYMODULE'),
  ('copy',
   'C:\\Users\\SirrafuS\\AppData\\Local\\Programs\\Python\\Python310\\lib\\copy.py',
   'PYMODULE'),
  ('gettext',
   'C:\\Users\\SirrafuS\\AppData\\Local\\Programs\\Python\\Python310\\lib\\gettext.py',
   'PYMODULE'),
  ('signal',
   'C:\\Users\\SirrafuS\\AppData\\Local\\Programs\\Python\\Python310\\lib\\signal.py',
   'PYMODULE'),
  ('multiprocessing.util',
   'C:\\Users\\SirrafuS\\AppData\\Local\\Programs\\Python\\Python310\\lib\\multiprocessing\\util.py',
   'PYMODULE'),
  ('multiprocessing.forkserver',
   'C:\\Users\\SirrafuS\\AppData\\Local\\Programs\\Python\\Python310\\lib\\multiprocessing\\forkserver.py',
   'PYMODULE'),
  ('multiprocessing.connection',
   'C:\\Users\\SirrafuS\\AppData\\Local\\Programs\\Python\\Python310\\lib\\multiprocessing\\connection.py',
   'PYMODULE'),
  ('multiprocessing.resource_sharer',
   'C:\\Users\\SirrafuS\\AppData\\Local\\Programs\\Python\\Python310\\lib\\multiprocessing\\resource_sharer.py',
   'PYMODULE'),
  ('xmlrpc.client',
   'C:\\Users\\SirrafuS\\AppData\\Local\\Programs\\Python\\Python310\\lib\\xmlrpc\\client.py',
   'PYMODULE'),
  ('xmlrpc',
   'C:\\Users\\SirrafuS\\AppData\\Local\\Programs\\Python\\Python310\\lib\\xmlrpc\\__init__.py',
   'PYMODULE'),
  ('xml.parsers.expat',
   'C:\\Users\\SirrafuS\\AppData\\Local\\Programs\\Python\\Python310\\lib\\xml\\parsers\\expat.py',
   'PYMODULE'),
  ('xml.parsers',
   'C:\\Users\\SirrafuS\\AppData\\Local\\Programs\\Python\\Python310\\lib\\xml\\parsers\\__init__.py',
   'PYMODULE'),
  ('xml',
   'C:\\Users\\SirrafuS\\AppData\\Local\\Programs\\Python\\Python310\\lib\\xml\\__init__.py',
   'PYMODULE'),
  ('xml.sax.expatreader',
   'C:\\Users\\SirrafuS\\AppData\\Local\\Programs\\Python\\Python310\\lib\\xml\\sax\\expatreader.py',
   'PYMODULE'),
  ('xml.sax.saxutils',
   'C:\\Users\\SirrafuS\\AppData\\Local\\Programs\\Python\\Python310\\lib\\xml\\sax\\saxutils.py',
   'PYMODULE'),
  ('urllib.request',
   'C:\\Users\\SirrafuS\\AppData\\Local\\Programs\\Python\\Python310\\lib\\urllib\\request.py',
   'PYMODULE'),
  ('getpass',
   'C:\\Users\\SirrafuS\\AppData\\Local\\Programs\\Python\\Python310\\lib\\getpass.py',
   'PYMODULE'),
  ('nturl2path',
   'C:\\Users\\SirrafuS\\AppData\\Local\\Programs\\Python\\Python310\\lib\\nturl2path.py',
   'PYMODULE'),
  ('ftplib',
   'C:\\Users\\SirrafuS\\AppData\\Local\\Programs\\Python\\Python310\\lib\\ftplib.py',
   'PYMODULE'),
  ('netrc',
   'C:\\Users\\SirrafuS\\AppData\\Local\\Programs\\Python\\Python310\\lib\\netrc.py',
   'PYMODULE'),
  ('shlex',
   'C:\\Users\\SirrafuS\\AppData\\Local\\Programs\\Python\\Python310\\lib\\shlex.py',
   'PYMODULE'),
  ('mimetypes',
   'C:\\Users\\SirrafuS\\AppData\\Local\\Programs\\Python\\Python310\\lib\\mimetypes.py',
   'PYMODULE'),
  ('http.cookiejar',
   'C:\\Users\\SirrafuS\\AppData\\Local\\Programs\\Python\\Python310\\lib\\http\\cookiejar.py',
   'PYMODULE'),
  ('http',
   'C:\\Users\\SirrafuS\\AppData\\Local\\Programs\\Python\\Python310\\lib\\http\\__init__.py',
   'PYMODULE'),
  ('ssl',
   'C:\\Users\\SirrafuS\\AppData\\Local\\Programs\\Python\\Python310\\lib\\ssl.py',
   'PYMODULE'),
  ('urllib.response',
   'C:\\Users\\SirrafuS\\AppData\\Local\\Programs\\Python\\Python310\\lib\\urllib\\response.py',
   'PYMODULE'),
  ('urllib.error',
   'C:\\Users\\SirrafuS\\AppData\\Local\\Programs\\Python\\Python310\\lib\\urllib\\error.py',
   'PYMODULE'),
  ('hashlib',
   'C:\\Users\\SirrafuS\\AppData\\Local\\Programs\\Python\\Python310\\lib\\hashlib.py',
   'PYMODULE'),
  ('bisect',
   'C:\\Users\\SirrafuS\\AppData\\Local\\Programs\\Python\\Python310\\lib\\bisect.py',
   'PYMODULE'),
  ('xml.sax',
   'C:\\Users\\SirrafuS\\AppData\\Local\\Programs\\Python\\Python310\\lib\\xml\\sax\\__init__.py',
   'PYMODULE'),
  ('xml.sax.handler',
   'C:\\Users\\SirrafuS\\AppData\\Local\\Programs\\Python\\Python310\\lib\\xml\\sax\\handler.py',
   'PYMODULE'),
  ('xml.sax._exceptions',
   'C:\\Users\\SirrafuS\\AppData\\Local\\Programs\\Python\\Python310\\lib\\xml\\sax\\_exceptions.py',
   'PYMODULE'),
  ('xml.sax.xmlreader',
   'C:\\Users\\SirrafuS\\AppData\\Local\\Programs\\Python\\Python310\\lib\\xml\\sax\\xmlreader.py',
   'PYMODULE'),
  ('http.client',
   'C:\\Users\\SirrafuS\\AppData\\Local\\Programs\\Python\\Python310\\lib\\http\\client.py',
   'PYMODULE'),
  ('decimal',
   'C:\\Users\\SirrafuS\\AppData\\Local\\Programs\\Python\\Python310\\lib\\decimal.py',
   'PYMODULE'),
  ('_pydecimal',
   'C:\\Users\\SirrafuS\\AppData\\Local\\Programs\\Python\\Python310\\lib\\_pydecimal.py',
   'PYMODULE'),
  ('contextvars',
   'C:\\Users\\SirrafuS\\AppData\\Local\\Programs\\Python\\Python310\\lib\\contextvars.py',
   'PYMODULE'),
  ('numbers',
   'C:\\Users\\SirrafuS\\AppData\\Local\\Programs\\Python\\Python310\\lib\\numbers.py',
   'PYMODULE'),
  ('hmac',
   'C:\\Users\\SirrafuS\\AppData\\Local\\Programs\\Python\\Python310\\lib\\hmac.py',
   'PYMODULE'),
  ('tempfile',
   'C:\\Users\\SirrafuS\\AppData\\Local\\Programs\\Python\\Python310\\lib\\tempfile.py',
   'PYMODULE'),
  ('logging',
   'C:\\Users\\SirrafuS\\AppData\\Local\\Programs\\Python\\Python310\\lib\\logging\\__init__.py',
   'PYMODULE'),
  ('pickle',
   'C:\\Users\\SirrafuS\\AppData\\Local\\Programs\\Python\\Python310\\lib\\pickle.py',
   'PYMODULE'),
  ('pprint',
   'C:\\Users\\SirrafuS\\AppData\\Local\\Programs\\Python\\Python310\\lib\\pprint.py',
   'PYMODULE'),
  ('dataclasses',
   'C:\\Users\\SirrafuS\\AppData\\Local\\Programs\\Python\\Python310\\lib\\dataclasses.py',
   'PYMODULE'),
  ('inspect',
   'C:\\Users\\SirrafuS\\AppData\\Local\\Programs\\Python\\Python310\\lib\\inspect.py',
   'PYMODULE'),
  ('token',
   'C:\\Users\\SirrafuS\\AppData\\Local\\Programs\\Python\\Python310\\lib\\token.py',
   'PYMODULE'),
  ('dis',
   'C:\\Users\\SirrafuS\\AppData\\Local\\Programs\\Python\\Python310\\lib\\dis.py',
   'PYMODULE'),
  ('opcode',
   'C:\\Users\\SirrafuS\\AppData\\Local\\Programs\\Python\\Python310\\lib\\opcode.py',
   'PYMODULE'),
  ('ast',
   'C:\\Users\\SirrafuS\\AppData\\Local\\Programs\\Python\\Python310\\lib\\ast.py',
   'PYMODULE'),
  ('doctest',
   'C:\\Users\\SirrafuS\\AppData\\Local\\Programs\\Python\\Python310\\lib\\doctest.py',
   'PYMODULE'),
  ('unittest',
   'C:\\Users\\SirrafuS\\AppData\\Local\\Programs\\Python\\Python310\\lib\\unittest\\__init__.py',
   'PYMODULE'),
  ('unittest.async_case',
   'C:\\Users\\SirrafuS\\AppData\\Local\\Programs\\Python\\Python310\\lib\\unittest\\async_case.py',
   'PYMODULE'),
  ('asyncio',
   'C:\\Users\\SirrafuS\\AppData\\Local\\Programs\\Python\\Python310\\lib\\asyncio\\__init__.py',
   'PYMODULE'),
  ('asyncio.unix_events',
   'C:\\Users\\SirrafuS\\AppData\\Local\\Programs\\Python\\Python310\\lib\\asyncio\\unix_events.py',
   'PYMODULE'),
  ('asyncio.log',
   'C:\\Users\\SirrafuS\\AppData\\Local\\Programs\\Python\\Python310\\lib\\asyncio\\log.py',
   'PYMODULE'),
  ('asyncio.windows_events',
   'C:\\Users\\SirrafuS\\AppData\\Local\\Programs\\Python\\Python310\\lib\\asyncio\\windows_events.py',
   'PYMODULE'),
  ('asyncio.windows_utils',
   'C:\\Users\\SirrafuS\\AppData\\Local\\Programs\\Python\\Python310\\lib\\asyncio\\windows_utils.py',
   'PYMODULE'),
  ('asyncio.selector_events',
   'C:\\Users\\SirrafuS\\AppData\\Local\\Programs\\Python\\Python310\\lib\\asyncio\\selector_events.py',
   'PYMODULE'),
  ('asyncio.proactor_events',
   'C:\\Users\\SirrafuS\\AppData\\Local\\Programs\\Python\\Python310\\lib\\asyncio\\proactor_events.py',
   'PYMODULE'),
  ('asyncio.base_subprocess',
   'C:\\Users\\SirrafuS\\AppData\\Local\\Programs\\Python\\Python310\\lib\\asyncio\\base_subprocess.py',
   'PYMODULE'),
  ('asyncio.threads',
   'C:\\Users\\SirrafuS\\AppData\\Local\\Programs\\Python\\Python310\\lib\\asyncio\\threads.py',
   'PYMODULE'),
  ('asyncio.subprocess',
   'C:\\Users\\SirrafuS\\AppData\\Local\\Programs\\Python\\Python310\\lib\\asyncio\\subprocess.py',
   'PYMODULE'),
  ('asyncio.streams',
   'C:\\Users\\SirrafuS\\AppData\\Local\\Programs\\Python\\Python310\\lib\\asyncio\\streams.py',
   'PYMODULE'),
  ('asyncio.queues',
   'C:\\Users\\SirrafuS\\AppData\\Local\\Programs\\Python\\Python310\\lib\\asyncio\\queues.py',
   'PYMODULE'),
  ('asyncio.runners',
   'C:\\Users\\SirrafuS\\AppData\\Local\\Programs\\Python\\Python310\\lib\\asyncio\\runners.py',
   'PYMODULE'),
  ('asyncio.events',
   'C:\\Users\\SirrafuS\\AppData\\Local\\Programs\\Python\\Python310\\lib\\asyncio\\events.py',
   'PYMODULE'),
  ('asyncio.base_events',
   'C:\\Users\\SirrafuS\\AppData\\Local\\Programs\\Python\\Python310\\lib\\asyncio\\base_events.py',
   'PYMODULE'),
  ('concurrent.futures',
   'C:\\Users\\SirrafuS\\AppData\\Local\\Programs\\Python\\Python310\\lib\\concurrent\\futures\\__init__.py',
   'PYMODULE'),
  ('concurrent.futures.thread',
   'C:\\Users\\SirrafuS\\AppData\\Local\\Programs\\Python\\Python310\\lib\\concurrent\\futures\\thread.py',
   'PYMODULE'),
  ('queue',
   'C:\\Users\\SirrafuS\\AppData\\Local\\Programs\\Python\\Python310\\lib\\queue.py',
   'PYMODULE'),
  ('concurrent.futures.process',
   'C:\\Users\\SirrafuS\\AppData\\Local\\Programs\\Python\\Python310\\lib\\concurrent\\futures\\process.py',
   'PYMODULE'),
  ('multiprocessing.synchronize',
   'C:\\Users\\SirrafuS\\AppData\\Local\\Programs\\Python\\Python310\\lib\\multiprocessing\\synchronize.py',
   'PYMODULE'),
  ('multiprocessing.heap',
   'C:\\Users\\SirrafuS\\AppData\\Local\\Programs\\Python\\Python310\\lib\\multiprocessing\\heap.py',
   'PYMODULE'),
  ('multiprocessing.queues',
   'C:\\Users\\SirrafuS\\AppData\\Local\\Programs\\Python\\Python310\\lib\\multiprocessing\\queues.py',
   'PYMODULE'),
  ('concurrent.futures._base',
   'C:\\Users\\SirrafuS\\AppData\\Local\\Programs\\Python\\Python310\\lib\\concurrent\\futures\\_base.py',
   'PYMODULE'),
  ('concurrent',
   'C:\\Users\\SirrafuS\\AppData\\Local\\Programs\\Python\\Python310\\lib\\concurrent\\__init__.py',
   'PYMODULE'),
  ('asyncio.trsock',
   'C:\\Users\\SirrafuS\\AppData\\Local\\Programs\\Python\\Python310\\lib\\asyncio\\trsock.py',
   'PYMODULE'),
  ('asyncio.staggered',
   'C:\\Users\\SirrafuS\\AppData\\Local\\Programs\\Python\\Python310\\lib\\asyncio\\staggered.py',
   'PYMODULE'),
  ('asyncio.tasks',
   'C:\\Users\\SirrafuS\\AppData\\Local\\Programs\\Python\\Python310\\lib\\asyncio\\tasks.py',
   'PYMODULE'),
  ('asyncio.locks',
   'C:\\Users\\SirrafuS\\AppData\\Local\\Programs\\Python\\Python310\\lib\\asyncio\\locks.py',
   'PYMODULE'),
  ('asyncio.base_tasks',
   'C:\\Users\\SirrafuS\\AppData\\Local\\Programs\\Python\\Python310\\lib\\asyncio\\base_tasks.py',
   'PYMODULE'),
  ('asyncio.mixins',
   'C:\\Users\\SirrafuS\\AppData\\Local\\Programs\\Python\\Python310\\lib\\asyncio\\mixins.py',
   'PYMODULE'),
  ('asyncio.sslproto',
   'C:\\Users\\SirrafuS\\AppData\\Local\\Programs\\Python\\Python310\\lib\\asyncio\\sslproto.py',
   'PYMODULE'),
  ('asyncio.transports',
   'C:\\Users\\SirrafuS\\AppData\\Local\\Programs\\Python\\Python310\\lib\\asyncio\\transports.py',
   'PYMODULE'),
  ('asyncio.protocols',
   'C:\\Users\\SirrafuS\\AppData\\Local\\Programs\\Python\\Python310\\lib\\asyncio\\protocols.py',
   'PYMODULE'),
  ('asyncio.futures',
   'C:\\Users\\SirrafuS\\AppData\\Local\\Programs\\Python\\Python310\\lib\\asyncio\\futures.py',
   'PYMODULE'),
  ('asyncio.exceptions',
   'C:\\Users\\SirrafuS\\AppData\\Local\\Programs\\Python\\Python310\\lib\\asyncio\\exceptions.py',
   'PYMODULE'),
  ('asyncio.coroutines',
   'C:\\Users\\SirrafuS\\AppData\\Local\\Programs\\Python\\Python310\\lib\\asyncio\\coroutines.py',
   'PYMODULE'),
  ('asyncio.base_futures',
   'C:\\Users\\SirrafuS\\AppData\\Local\\Programs\\Python\\Python310\\lib\\asyncio\\base_futures.py',
   'PYMODULE'),
  ('asyncio.format_helpers',
   'C:\\Users\\SirrafuS\\AppData\\Local\\Programs\\Python\\Python310\\lib\\asyncio\\format_helpers.py',
   'PYMODULE'),
  ('asyncio.constants',
   'C:\\Users\\SirrafuS\\AppData\\Local\\Programs\\Python\\Python310\\lib\\asyncio\\constants.py',
   'PYMODULE'),
  ('unittest.signals',
   'C:\\Users\\SirrafuS\\AppData\\Local\\Programs\\Python\\Python310\\lib\\unittest\\signals.py',
   'PYMODULE'),
  ('unittest.main',
   'C:\\Users\\SirrafuS\\AppData\\Local\\Programs\\Python\\Python310\\lib\\unittest\\main.py',
   'PYMODULE'),
  ('unittest.runner',
   'C:\\Users\\SirrafuS\\AppData\\Local\\Programs\\Python\\Python310\\lib\\unittest\\runner.py',
   'PYMODULE'),
  ('unittest.loader',
   'C:\\Users\\SirrafuS\\AppData\\Local\\Programs\\Python\\Python310\\lib\\unittest\\loader.py',
   'PYMODULE'),
  ('unittest.suite',
   'C:\\Users\\SirrafuS\\AppData\\Local\\Programs\\Python\\Python310\\lib\\unittest\\suite.py',
   'PYMODULE'),
  ('unittest.case',
   'C:\\Users\\SirrafuS\\AppData\\Local\\Programs\\Python\\Python310\\lib\\unittest\\case.py',
   'PYMODULE'),
  ('unittest._log',
   'C:\\Users\\SirrafuS\\AppData\\Local\\Programs\\Python\\Python310\\lib\\unittest\\_log.py',
   'PYMODULE'),
  ('unittest.result',
   'C:\\Users\\SirrafuS\\AppData\\Local\\Programs\\Python\\Python310\\lib\\unittest\\result.py',
   'PYMODULE'),
  ('unittest.util',
   'C:\\Users\\SirrafuS\\AppData\\Local\\Programs\\Python\\Python310\\lib\\unittest\\util.py',
   'PYMODULE'),
  ('pdb',
   'C:\\Users\\SirrafuS\\AppData\\Local\\Programs\\Python\\Python310\\lib\\pdb.py',
   'PYMODULE'),
  ('pydoc',
   'C:\\Users\\SirrafuS\\AppData\\Local\\Programs\\Python\\Python310\\lib\\pydoc.py',
   'PYMODULE'),
  ('webbrowser',
   'C:\\Users\\SirrafuS\\AppData\\Local\\Programs\\Python\\Python310\\lib\\webbrowser.py',
   'PYMODULE'),
  ('http.server',
   'C:\\Users\\SirrafuS\\AppData\\Local\\Programs\\Python\\Python310\\lib\\http\\server.py',
   'PYMODULE'),
  ('socketserver',
   'C:\\Users\\SirrafuS\\AppData\\Local\\Programs\\Python\\Python310\\lib\\socketserver.py',
   'PYMODULE'),
  ('html',
   'C:\\Users\\SirrafuS\\AppData\\Local\\Programs\\Python\\Python310\\lib\\html\\__init__.py',
   'PYMODULE'),
  ('html.entities',
   'C:\\Users\\SirrafuS\\AppData\\Local\\Programs\\Python\\Python310\\lib\\html\\entities.py',
   'PYMODULE'),
  ('pydoc_data.topics',
   'C:\\Users\\SirrafuS\\AppData\\Local\\Programs\\Python\\Python310\\lib\\pydoc_data\\topics.py',
   'PYMODULE'),
  ('pydoc_data',
   'C:\\Users\\SirrafuS\\AppData\\Local\\Programs\\Python\\Python310\\lib\\pydoc_data\\__init__.py',
   'PYMODULE'),
  ('tty',
   'C:\\Users\\SirrafuS\\AppData\\Local\\Programs\\Python\\Python310\\lib\\tty.py',
   'PYMODULE'),
  ('sysconfig',
   'C:\\Users\\SirrafuS\\AppData\\Local\\Programs\\Python\\Python310\\lib\\sysconfig.py',
   'PYMODULE'),
  ('_aix_support',
   'C:\\Users\\SirrafuS\\AppData\\Local\\Programs\\Python\\Python310\\lib\\_aix_support.py',
   'PYMODULE'),
  ('_bootsubprocess',
   'C:\\Users\\SirrafuS\\AppData\\Local\\Programs\\Python\\Python310\\lib\\_bootsubprocess.py',
   'PYMODULE'),
  ('_osx_support',
   'C:\\Users\\SirrafuS\\AppData\\Local\\Programs\\Python\\Python310\\lib\\_osx_support.py',
   'PYMODULE'),
  ('platform',
   'C:\\Users\\SirrafuS\\AppData\\Local\\Programs\\Python\\Python310\\lib\\platform.py',
   'PYMODULE'),
  ('plistlib',
   'C:\\Users\\SirrafuS\\AppData\\Local\\Programs\\Python\\Python310\\lib\\plistlib.py',
   'PYMODULE'),
  ('pkgutil',
   'C:\\Users\\SirrafuS\\AppData\\Local\\Programs\\Python\\Python310\\lib\\pkgutil.py',
   'PYMODULE'),
  ('zipimport',
   'C:\\Users\\SirrafuS\\AppData\\Local\\Programs\\Python\\Python310\\lib\\zipimport.py',
   'PYMODULE'),
  ('runpy',
   'C:\\Users\\SirrafuS\\AppData\\Local\\Programs\\Python\\Python310\\lib\\runpy.py',
   'PYMODULE'),
  ('glob',
   'C:\\Users\\SirrafuS\\AppData\\Local\\Programs\\Python\\Python310\\lib\\glob.py',
   'PYMODULE'),
  ('code',
   'C:\\Users\\SirrafuS\\AppData\\Local\\Programs\\Python\\Python310\\lib\\code.py',
   'PYMODULE'),
  ('codeop',
   'C:\\Users\\SirrafuS\\AppData\\Local\\Programs\\Python\\Python310\\lib\\codeop.py',
   'PYMODULE'),
  ('bdb',
   'C:\\Users\\SirrafuS\\AppData\\Local\\Programs\\Python\\Python310\\lib\\bdb.py',
   'PYMODULE'),
  ('cmd',
   'C:\\Users\\SirrafuS\\AppData\\Local\\Programs\\Python\\Python310\\lib\\cmd.py',
   'PYMODULE'),
  ('difflib',
   'C:\\Users\\SirrafuS\\AppData\\Local\\Programs\\Python\\Python310\\lib\\difflib.py',
   'PYMODULE'),
  ('__future__',
   'C:\\Users\\SirrafuS\\AppData\\Local\\Programs\\Python\\Python310\\lib\\__future__.py',
   'PYMODULE'),
  ('_compat_pickle',
   'C:\\Users\\SirrafuS\\AppData\\Local\\Programs\\Python\\Python310\\lib\\_compat_pickle.py',
   'PYMODULE'),
  ('multiprocessing.process',
   'C:\\Users\\SirrafuS\\AppData\\Local\\Programs\\Python\\Python310\\lib\\multiprocessing\\process.py',
   'PYMODULE'),
  ('multiprocessing.context',
   'C:\\Users\\SirrafuS\\AppData\\Local\\Programs\\Python\\Python310\\lib\\multiprocessing\\context.py',
   'PYMODULE'),
  ('multiprocessing.popen_forkserver',
   'C:\\Users\\SirrafuS\\AppData\\Local\\Programs\\Python\\Python310\\lib\\multiprocessing\\popen_forkserver.py',
   'PYMODULE'),
  ('multiprocessing.sharedctypes',
   'C:\\Users\\SirrafuS\\AppData\\Local\\Programs\\Python\\Python310\\lib\\multiprocessing\\sharedctypes.py',
   'PYMODULE'),
  ('ctypes',
   'C:\\Users\\SirrafuS\\AppData\\Local\\Programs\\Python\\Python310\\lib\\ctypes\\__init__.py',
   'PYMODULE'),
  ('ctypes._endian',
   'C:\\Users\\SirrafuS\\AppData\\Local\\Programs\\Python\\Python310\\lib\\ctypes\\_endian.py',
   'PYMODULE'),
  ('multiprocessing.pool',
   'C:\\Users\\SirrafuS\\AppData\\Local\\Programs\\Python\\Python310\\lib\\multiprocessing\\pool.py',
   'PYMODULE'),
  ('multiprocessing.dummy',
   'C:\\Users\\SirrafuS\\AppData\\Local\\Programs\\Python\\Python310\\lib\\multiprocessing\\dummy\\__init__.py',
   'PYMODULE'),
  ('multiprocessing.dummy.connection',
   'C:\\Users\\SirrafuS\\AppData\\Local\\Programs\\Python\\Python310\\lib\\multiprocessing\\dummy\\connection.py',
   'PYMODULE'),
  ('multiprocessing.managers',
   'C:\\Users\\SirrafuS\\AppData\\Local\\Programs\\Python\\Python310\\lib\\multiprocessing\\managers.py',
   'PYMODULE'),
  ('multiprocessing.shared_memory',
   'C:\\Users\\SirrafuS\\AppData\\Local\\Programs\\Python\\Python310\\lib\\multiprocessing\\shared_memory.py',
   'PYMODULE'),
  ('secrets',
   'C:\\Users\\SirrafuS\\AppData\\Local\\Programs\\Python\\Python310\\lib\\secrets.py',
   'PYMODULE'),
  ('multiprocessing.reduction',
   'C:\\Users\\SirrafuS\\AppData\\Local\\Programs\\Python\\Python310\\lib\\multiprocessing\\reduction.py',
   'PYMODULE'),
  ('multiprocessing.popen_fork',
   'C:\\Users\\SirrafuS\\AppData\\Local\\Programs\\Python\\Python310\\lib\\multiprocessing\\popen_fork.py',
   'PYMODULE'),
  ('multiprocessing.popen_spawn_win32',
   'C:\\Users\\SirrafuS\\AppData\\Local\\Programs\\Python\\Python310\\lib\\multiprocessing\\popen_spawn_win32.py',
   'PYMODULE'),
  ('subprocess',
   'C:\\Users\\SirrafuS\\AppData\\Local\\Programs\\Python\\Python310\\lib\\subprocess.py',
   'PYMODULE'),
  ('os',
   'C:\\Users\\SirrafuS\\AppData\\Local\\Programs\\Python\\Python310\\lib\\os.py',
   'PYMODULE'),
  ('multiprocessing.spawn',
   'C:\\Users\\SirrafuS\\AppData\\Local\\Programs\\Python\\Python310\\lib\\multiprocessing\\spawn.py',
   'PYMODULE'),
  ('multiprocessing',
   'C:\\Users\\SirrafuS\\AppData\\Local\\Programs\\Python\\Python310\\lib\\multiprocessing\\__init__.py',
   'PYMODULE'),
  ('_py_abc',
   'C:\\Users\\SirrafuS\\AppData\\Local\\Programs\\Python\\Python310\\lib\\_py_abc.py',
   'PYMODULE'),
  ('stringprep',
   'C:\\Users\\SirrafuS\\AppData\\Local\\Programs\\Python\\Python310\\lib\\stringprep.py',
   'PYMODULE'),
  ('tracemalloc',
   'C:\\Users\\SirrafuS\\AppData\\Local\\Programs\\Python\\Python310\\lib\\tracemalloc.py',
   'PYMODULE'),
  ('random',
   'C:\\Users\\SirrafuS\\AppData\\Local\\Programs\\Python\\Python310\\lib\\random.py',
   'PYMODULE'),
  ('statistics',
   'C:\\Users\\SirrafuS\\AppData\\Local\\Programs\\Python\\Python310\\lib\\statistics.py',
   'PYMODULE'),
  ('fractions',
   'C:\\Users\\SirrafuS\\AppData\\Local\\Programs\\Python\\Python310\\lib\\fractions.py',
   'PYMODULE')],
 [('python310.dll',
   'C:\\Users\\SirrafuS\\AppData\\Local\\Programs\\Python\\Python310\\python310.dll',
   'BINARY'),
  ('VCRUNTIME140.dll',
   'C:\\Users\\SirrafuS\\AppData\\Local\\Programs\\Python\\Python310\\VCRUNTIME140.dll',
   'BINARY'),
  ('_multiprocessing',
   'C:\\Users\\SirrafuS\\AppData\\Local\\Programs\\Python\\Python310\\DLLs\\_multiprocessing.pyd',
   'EXTENSION'),
  ('unicodedata',
   'C:\\Users\\SirrafuS\\AppData\\Local\\Programs\\Python\\Python310\\DLLs\\unicodedata.pyd',
   'EXTENSION'),
  ('select',
   'C:\\Users\\SirrafuS\\AppData\\Local\\Programs\\Python\\Python310\\DLLs\\select.pyd',
   'EXTENSION'),
  ('_socket',
   'C:\\Users\\SirrafuS\\AppData\\Local\\Programs\\Python\\Python310\\DLLs\\_socket.pyd',
   'EXTENSION'),
  ('_lzma',
   'C:\\Users\\SirrafuS\\AppData\\Local\\Programs\\Python\\Python310\\DLLs\\_lzma.pyd',
   'EXTENSION'),
  ('_bz2',
   'C:\\Users\\SirrafuS\\AppData\\Local\\Programs\\Python\\Python310\\DLLs\\_bz2.pyd',
   'EXTENSION'),
  ('pyexpat',
   'C:\\Users\\SirrafuS\\AppData\\Local\\Programs\\Python\\Python310\\DLLs\\pyexpat.pyd',
   'EXTENSION'),
  ('_ssl',
   'C:\\Users\\SirrafuS\\AppData\\Local\\Programs\\Python\\Python310\\DLLs\\_ssl.pyd',
   'EXTENSION'),
  ('_hashlib',
   'C:\\Users\\SirrafuS\\AppData\\Local\\Programs\\Python\\Python310\\DLLs\\_hashlib.pyd',
   'EXTENSION'),
  ('_decimal',
   'C:\\Users\\SirrafuS\\AppData\\Local\\Programs\\Python\\Python310\\DLLs\\_decimal.pyd',
   'EXTENSION'),
  ('_overlapped',
   'C:\\Users\\SirrafuS\\AppData\\Local\\Programs\\Python\\Python310\\DLLs\\_overlapped.pyd',
   'EXTENSION'),
  ('_asyncio',
   'C:\\Users\\SirrafuS\\AppData\\Local\\Programs\\Python\\Python310\\DLLs\\_asyncio.pyd',
   'EXTENSION'),
  ('_queue',
   'C:\\Users\\SirrafuS\\AppData\\Local\\Programs\\Python\\Python310\\DLLs\\_queue.pyd',
   'EXTENSION'),
  ('_ctypes',
   'C:\\Users\\SirrafuS\\AppData\\Local\\Programs\\Python\\Python310\\DLLs\\_ctypes.pyd',
   'EXTENSION'),
  ('libssl-1_1.dll',
   'C:\\Users\\SirrafuS\\AppData\\Local\\Programs\\Python\\Python310\\DLLs\\libssl-1_1.dll',
   'BINARY'),
  ('libcrypto-1_1.dll',
   'C:\\Users\\SirrafuS\\AppData\\Local\\Programs\\Python\\Python310\\DLLs\\libcrypto-1_1.dll',
   'BINARY'),
  ('libffi-7.dll',
   'C:\\Users\\SirrafuS\\AppData\\Local\\Programs\\Python\\Python310\\DLLs\\libffi-7.dll',
   'BINARY')],
 [],
 [],
 [('base_library.zip',
   'C:\\git\\python\\Executables\\Rock Paper Scissors\\build\\Rock Paper '
   'Scissors\\base_library.zip',
   'DATA')],
 [])
